[
    {"pk": 1, "model": "user_data.badgetype", "fields": {"name": "Bronze"}},
    {"pk": 2, "model": "user_data.badgetype", "fields": {"name": "Silver"}},
    {"pk": 3, "model": "user_data.badgetype", "fields": {"name": "Gold"}},


    {"pk": 1, "model": "user_data.activity", "fields": {"name": "Solve video"}},
    {"pk": 2, "model": "user_data.activity", "fields": {"name": "Visit video"}},
    {"pk": 3, "model": "user_data.activity", "fields": {"name": "Share video"}},
    {"pk": 4, "model": "user_data.activity", "fields": {"name": "Visit the site"}},
    {"pk": 5, "model": "user_data.activity", "fields": {"name": "Send correction"}},
    {"pk": 6, "model": "user_data.activity", "fields": {"name": "Contribute video"}},
    {"pk": 7, "model": "user_data.activity", "fields": {"name": "Sign up"}},


    {"pk": 4, "model": "user_data.badge", "fields": {"type": 1, "name": "Student", "description": "Solves first video", "related_activity": 1, "repetition_needed": 1}},
    {"pk": 5, "model": "user_data.badge", "fields": {"type": 2, "name": "Nerd", "description": "Solve 50 videos", "related_activity": 1, "repetition_needed": 50}},
    {"pk": 6, "model": "user_data.badge", "fields": {"type": 3, "name": "Geek", "description": "Solve 100 videos", "related_activity": 1, "repetition_needed": 100}},

    {"pk": 8, "model": "user_data.badge", "fields": {"type": 1, "name": "Curious", "description": "Visit 10 videos", "related_activity": 2, "repetition_needed": 10}},
    {"pk": 9, "model": "user_data.badge", "fields": {"type": 2, "name": "Informed", "description": "Visit 100 videos", "related_activity": 2, "repetition_needed": 100}},
    {"pk": 10, "model": "user_data.badge", "fields": {"type": 3, "name": "Fanatic", "description": "Visit 1000 videos", "related_activity": 2, "repetition_needed": 1000}},

    {"pk": 11, "model": "user_data.badge", "fields": {"type": 1, "name": "Promoter", "description": "Share 10 videos.", "related_activity": 3, "repetition_needed": 10}},
    {"pk": 12, "model": "user_data.badge", "fields": {"type": 2, "name": "Enthusiast", "description": "Visit the site 30 different days.", "related_activity": 4, "repetition_needed": 30}},
    {"pk": 13, "model": "user_data.badge", "fields": {"type": 3, "name": "Disciplined", "description": "Visit the site 100 different days.", "related_activity": 4, "repetition_needed": 100}},

    {"pk": 14, "model": "user_data.badge", "fields": {"type": 1, "name": "Good citizen", "description": "Send a correction to a video that is accepted.", "related_activity": 5, "repetition_needed": 1}},
    {"pk": 15, "model": "user_data.badge", "fields": {"type": 2, "name": "City Marshall", "description": "Send 10 accepted corrections to different videos.", "related_activity": 5, "repetition_needed": 10}},

    {"pk": 16, "model": "user_data.badge", "fields": {"type": 1, "name": "Builder", "description": "Contribute to Capego with a new video.", "related_activity": 6, "repetition_needed": 1}},

    {"pk": 17, "model": "user_data.badge", "fields": {"type": 1, "name": "First impression", "description": "Sign up to Capego.", "related_activity": 7, "repetition_needed": 1}}

]